{
    "$schema": "https://schema.management.azure.com/schemas/2019-04-01/deploymentParameters.json#",
    "contentVersion": "1.0.0.0",
    "parameters": {
        "location": {
            "value": "northeurope"
        },
        "extendedLocation": {
            "value": {}
        },
        "virtualNetworkName": {
            "value": "vnet1"
        },
        "subnetSpace": {
            "value": "10.0.0.0/24"
        },
        "subnet1Name": {
            "value": "subnet1"
        },
        "subnet2Name": {
            "value": "subnet2"
        },
        "subnet3Name": {
            "value": "subnet3"
        },
        "subnet4Name": {
            "value": "subnet4"
        },
        "subnet1Prefix": {
            "value": "10.0.0.0/26"
        },
        "subnet2Prefix": {
            "value": "10.0.0.64/26"
        },
        "subnet3Prefix": {
            "value": "10.0.0.128/26"
        },
        "subnet4Prefix": {
            "value": "10.0.0.192/26"
        }
    }
}